Exercices parcours R module 2 : datapréparation • savoirfR
…
A partir des données “sitadel” chargées dans l’exercice 1, effectuer
les opérations suivantes en utilisant l’opérateur %>%
:

effectuer les mêmes calculs que ceux réalisés sur la région 52, mais
sur chacune des régions –> à stocker dans ‘sit_ind’

calculer les agrégations par année civile pour chacune des régions,
puis leur taux d’évolution d’une année sur l’autre (exemple :
(val2015-val2014)/val2014) –> à stocker dans ‘sit_annuel’

Résultat attendu pour sit_ind :

#> # A tibble: 5,356 × 12
#>    date   REG   log_AUT ip_AUT ig_AUT colres_AUT i_AUT i_AUT_cum12
#>    <chr>  <chr>   <dbl>  <dbl>  <dbl>      <dbl> <dbl>       <dbl>
#>  1 200001 01        440    194     12        234   206          NA
#>  2 200001 02        372    189     14        169   203          NA
#>  3 200001 03        172     25      3        144    28          NA
#>  4 200001 04        473    325     84         64   409          NA
#>  5 200001 11       3029    754    318       1957  1072          NA
#>  6 200001 21        547    274     94        179   368          NA
#>  7 200001 22        475    328     16        131   344          NA
#>  8 200001 23        569    445     35         89   480          NA
#>  9 200001 24       1057    714     88        255   802          NA
#> 10 200001 25        708    410    206         92   616          NA
#> # ℹ 5,346 more rows
#> # ℹ 4 more variables: i_AUT_cum12_lag12 <dbl>, i_AUT_cum_evo <dbl>,
#> #   log_AUT_cum12 <dbl>, part_i_AU <dbl>

Résultat attendu pour sit_annuel :

#> # A tibble: 468 × 10
#>    REG   annee log_AUT ip_AUT ig_AUT colres_AUT evol_an_log_AUT evol_an_ip_AUT
#>    <chr> <chr>   <dbl>  <dbl>  <dbl>      <dbl>           <dbl>          <dbl>
#>  1 01    2000     6625   2776    674       3175              NA             NA
#>  2 02    2000     3956   1805    270       1881              NA             NA
#>  3 03    2000     1501    363    363        775              NA             NA
#>  4 04    2000     9749   4580   1246       3923              NA             NA
#>  5 11    2000    44443   8843   4836      30764              NA             NA
#>  6 21    2000     5519   3164    890       1465              NA             NA
#>  7 22    2000     6363   3819    721       1823              NA             NA
#>  8 23    2000     8803   4712   1256       2835              NA             NA
#>  9 24    2000    13386   7770   1867       3749              NA             NA
#> 10 25    2000     8678   5288   1401       1989              NA             NA
#> # ℹ 458 more rows
#> # ℹ 2 more variables: evol_an_ig_AUT <dbl>, evol_an_colres_AUT <dbl>
…
filtrer les concentrations quantifiées
(code_remarque=1) et l’année 2016

sommer les concentrations (resultat_analyse) par
combinaison code_station x
code_prelevement

ne conserver que le prélèvement avec le concentration maximale

Résultats attendus :

Résultat attendu pour le taux de quantification par molécule et
année :

#> # A tibble: 6,538 × 3
#>    annee code_parametre taux_quantif
#>    <dbl>          <dbl>        <dbl>
#>  1  1991           1129            0
#>  2  1991           1130            0
#>  3  1991           1176            0
#>  4  1991           1199            0
#>  5  1991           1212            0
#>  6  1991           1259            0
#>  7  1991           1263          100
#>  8  1991           1267            0
#>  9  1992           1101            0
#> 10  1992           1107          100
#> # ℹ 6,528 more rows

Résultat attendu pour prélèvement le plus pollué de chaque
station en 2016 :

#> # A tibble: 176 × 3
#>    libelle_station                    code_prelevement concentration_cumulee
#>    <chr>                                         <int>                 <dbl>
#>  1 ANGLE GUIGNARD-RETENUE                        43003                 0.04 
#>  2 ANXURE À SAINT-GERMAIN-D'ANXURE               42228                 0.02 
#>  3 APREMONT-RETENUE                              42895                 0.035
#>  4 ARAIZE à CHATELAIS                            41451                 0.006
#>  5 ARON à MOULAY                                 41359                 0.008
#>  6 AUBANCE À LOUERRE                             41571                 0.08 
#>  7 AUBANCE à MURS-ERIGNE                         41542                 0.317
#>  8 AUBANCE à SAINT-SATURNIN-SUR-LOIRE            41584                 0.167
#>  9 AUTHION à LES PONTS-DE-CE                     42532                 0.27 
#> 10 AUTISE À SAINT-HILAIRE-DES-LOGES              41998                 0.048
#> # ℹ 166 more rows
…
